date,magnet,sticky,proportion_politeC
30/06/2007 00:00,50,66.6667,0.3846
30/07/2007 00:00,28.5714,75,0.5
31/08/2007 00:00,41.6667,75,0.3421
30/09/2007 00:00,12.5,62.5,0.7
30/10/2007 00:00,18.75,37.5,0.3684
30/11/2007 00:00,31.25,75,0.42855
30/12/2007 00:00,22.2222,70,0.9412
31/01/2008 00:00,15,50,0.73685
29/02/2008 00:00,28.5714,63.6364,0.8
29/03/2008 00:00,34.4828,58.8235,0.74285
30/04/2008 00:00,32.5,47.8261,0.71795
30/05/2008 00:00,19.0476,57.8947,0.34445
30/06/2008 00:00,23.0769,45,0.6197
30/07/2008 00:00,34.0909,54.1667,0.4923
31/08/2008 00:00,19.5652,45.4545,0.56895
30/09/2008 00:00,17.9487,52.9412,0.62965
30/10/2008 00:00,27.7778,42.1053,0.6949
30/11/2008 00:00,26.8293,55,0.6383
30/12/2008 00:00,33.3333,40.7407,0.74285
31/01/2009 00:00,22,43.4783,0.7227
28/02/2009 00:00,19.5122,55.5556,0.29335
28/03/2009 00:00,25,40.9091,0.60395
30/04/2009 00:00,36,32.1429,0.5575
30/05/2009 00:00,27.451,47.8261,0.6044
30/06/2009 00:00,37.037,41.9355,0.64485
30/07/2009 00:00,25.8621,40.7407,0.4944
31/08/2009 00:00,22,40.9091,0.50575
30/09/2009 00:00,43.6364,33.3333,0.6383
30/10/2009 00:00,27.8689,50,0.55555
30/11/2009 00:00,33.8462,41.6667,0.1722
30/12/2009 00:00,24.6377,50,0.63395
31/01/2010 00:00,33.3333,40.5405,0.66935
28/02/2010 00:00,18.75,37.037,0.6988
28/03/2010 00:00,30.5085,53.5714,0.78
30/04/2010 00:00,26.2295,38.7097,0.64045
30/05/2010 00:00,23.2143,56,0.69015
30/06/2010 00:00,25,37.037,0.6143
30/07/2010 00:00,32.7273,39.2857,0.74255
31/08/2010 00:00,22,27.2727,0.72605
30/09/2010 00:00,46.1538,43.3333,0.8095
30/10/2010 00:00,43.038,38.2979,0.80315
30/11/2010 00:00,18.5185,57.5758,0.7561
30/12/2010 00:00,23.1884,57.1429,0.6892
31/01/2011 00:00,32.0988,43.4783,0.63185
28/02/2011 00:00,31.25,40,0.6283
28/03/2011 00:00,24.7423,37.2093,0.71085
30/04/2011 00:00,26.7442,47.3684,0.79825
30/05/2011 00:00,32.1839,54.3478,0.76415
30/06/2011 00:00,29,41.5094,0.78865
30/07/2011 00:00,26.6667,46,0.7629
31/08/2011 00:00,27,50,0.74755
30/09/2011 00:00,24.2424,44.898,0.75195
30/10/2011 00:00,30.7692,38.8889,0.7528
30/11/2011 00:00,30,38.1818,0.64635
30/12/2011 00:00,18.2796,42.1053,0.7536
31/01/2012 00:00,33.7349,44.4444,0.7731
29/02/2012 00:00,27.7778,46.6667,0.7647
29/03/2012 00:00,26.5957,28.2609,0.70835
30/04/2012 00:00,30.5263,37.7778,0.7711
30/05/2012 00:00,31.1111,26.6667,0.77195
30/06/2012 00:00,37.6344,27.6596,0.7957
30/07/2012 00:00,30.6818,32.5,0.66665
31/08/2012 00:00,34.4828,46.6667,0.84405
30/09/2012 00:00,25,41.8605,0.7439
30/10/2012 00:00,24.6914,29.7297,0.8923
30/11/2012 00:00,33.7838,33.3333,0.7778
30/12/2012 00:00,33.7838,32.4324,0.7969
31/01/2013 00:00,41.1765,35.4167,0.77275
28/02/2013 00:00,30.1075,42.2222,0.83825
28/03/2013 00:00,40.1786,28.125,0.7541
30/04/2013 00:00,26.087,31.9149,0.79245
30/05/2013 00:00,34.375,39.5833,0.6207
30/06/2013 00:00,27.957,35.5556,0.7324
30/07/2013 00:00,29.8851,45.2381,0.73135
31/08/2013 00:00,35.0515,35.8491,0.7157
30/09/2013 00:00,26.5306,42.2222,0.83335
30/10/2013 00:00,28.8889,33.3333,0.6377
30/11/2013 00:00,31.8681,22.7273,0.74195
30/12/2013 00:00,28.2051,0,0.8