date,magnet,sticky,proportion_politeC
30/06/2009 00:00,25.71428571,68.42105263,0.4186
30/07/2009 00:00,31.91489362,60.71428571,0.47435
31/08/2009 00:00,16.36363636,44.44444444,0.4316
30/09/2009 00:00,25,52,0.44645
30/10/2009 00:00,13.04347826,57.89473684,0.41465
30/11/2009 00:00,36.17021277,50,0.46155
30/12/2009 00:00,27.5862069,63.33333333,0.5
31/01/2010 00:00,22.22222222,48.48484848,0.3409
28/02/2010 00:00,25.75757576,42.42424242,0.58825
28/03/2010 00:00,31.94444444,50,0.46915
30/04/2010 00:00,31.81818182,39.13043478,0.494
30/05/2010 00:00,35,45.28301887,0.4719
30/06/2010 00:00,26.66666667,46.15384615,0.4923
30/07/2010 00:00,27.61904762,52.83018868,0.33785
31/08/2010 00:00,22.93577982,44.44444444,0.34885
30/09/2010 00:00,22,58.69565217,0.4659
30/10/2010 00:00,23.15789474,55.10204082,0.4086
30/11/2010 00:00,23.52941176,44.23076923,0.4186
30/12/2010 00:00,26,54.16666667,0.4086
31/01/2011 00:00,30.90909091,51.66666667,0.487
28/02/2011 00:00,24.16666667,55,0.4569
28/03/2011 00:00,25,52.30769231,0.44605
30/04/2011 00:00,20.61068702,54.6875,0.46775
30/05/2011 00:00,23.84615385,51.51515152,0.3619
30/06/2011 00:00,25,63.63636364,0.48505
30/07/2011 00:00,30.12820513,56.17977528,0.50325
31/08/2011 00:00,20.78651685,56.32183908,0.4483
30/09/2011 00:00,23.16384181,44.44444444,0.3875
30/10/2011 00:00,17.61006289,58.82352941,0.37035
30/11/2011 00:00,26.02739726,47.43589744,0.52175
30/12/2011 00:00,22.2972973,51.42857143,0.475
31/01/2012 00:00,23.02158273,40.57971014,0.40625
29/02/2012 00:00,23.01587302,47.36842105,0.4634
29/03/2012 00:00,32.03125,39.13043478,0.43955
30/04/2012 00:00,25.56390977,45.90163934,0.45555
30/05/2012 00:00,27.2,52.38095238,0.3957
30/06/2012 00:00,34.02777778,46.91358025,0.5
30/07/2012 00:00,27.27272727,33.73493976,0.5118
31/08/2012 00:00,31.05590062,42.30769231,0.4778
30/09/2012 00:00,31.90184049,42.35294118,0.33805
30/10/2012 00:00,28.73563218,44.70588235,0.41405
30/11/2012 00:00,23.92638037,40.25974026,0.5268
30/12/2012 00:00,23.77622378,47.69230769,0.3846
31/01/2013 00:00,27.6119403,43.47826087,0.4516
28/02/2013 00:00,33.55704698,43.75,0.439
28/03/2013 00:00,29.34131737,38.82352941,0.48695
30/04/2013 00:00,26.08695652,36.48648649,0.48115
30/05/2013 00:00,24.44444444,60,0.4388
30/06/2013 00:00,30.71428571,50.63291139,0.4434
30/07/2013 00:00,28.74251497,47.12643678,0.52575
31/08/2013 00:00,24.43181818,50,0.41965
30/09/2013 00:00,31.89189189,49.5049505,0.4803
30/10/2013 00:00,28.7037037,40.7079646,0.45665
30/11/2013 00:00,25.58139535,41.83673469,0.48225