date,magnet,sticky,proportion_PoliteC
46:56.3,88.8889,50,0.2
46:56.3,25,62.5,0.2
46:56.3,22.2222,33.3333,0
46:56.3,29.4118,62.5,0.375
46:56.3,50,50,0.4151
46:56.3,34.8837,29.1667,0.25
46:56.3,39.2157,29.6296,0.5357
46:56.3,55.4217,24.0741,0.3229
46:56.3,40.1639,21.3115,0.46465
46:56.3,39.2,27.4194,0.4156
46:56.3,39.2308,17.6471,0.4111
46:56.3,33.3333,25,0.45455
46:56.3,39.6396,17.2414,0.3913
46:56.3,38.1818,19.2308,0.50875
46:56.3,47.5,20.8955,0.46155
46:56.3,33.6066,18.1818,0.55715
46:56.3,43.9655,29.5082,0.44595
46:56.3,34.9206,30.6452,0.5932
46:56.3,36.7188,18.1818,0.51785
46:56.3,36.2963,19.3548,0.59525
46:56.3,31.746,18.1818,0.58335
46:56.3,39.823,21.4286,0.375
46:56.3,38.7931,19.2982,0.4898
46:56.3,39.3162,21.0526,0.41665
46:56.3,39.4737,24.5614,0.4107
46:56.3,45.8015,17.5676,0.4706
46:56.3,41.7219,17.1053,0.597
46:56.3,39.4558,16.9014,0.56045
46:56.3,33.6,16.6667,0.60465
46:56.3,42.2018,21.8182,0.45455
46:56.3,46.8254,18.3099,0.56365
46:56.3,30.0813,16.3265,0.69695
46:56.3,41.8182,26.9231,0.65305
46:56.3,39.823,13.5593,0.5
46:56.3,50.3704,17.1053,0.55265
46:56.3,37.7622,19.403,0.64815
46:56.3,42.2535,16.2162,0.5778
46:56.3,47.8788,18.6813,0.5849
46:56.3,41.4894,14.7368,0.59615
46:56.3,38.4615,21.1765,0.7258
46:56.3,29.5302,14.2857,0.6774
46:56.3,40.8,18.0328,0.52275
46:56.3,46.2687,19.1781,0.5682
46:56.3,43.038,13.5802,0.54055
46:56.3,41.1392,15.7895,0.89655
46:56.3,37.5887,15.625,0.6
46:56.3,41.3534,12.1212,0.7442
46:56.3,41.6667,20.3125,0.60715
46:56.3,42.446,11.1111,0.66665
46:56.3,42.446,23.8806,0.66665
46:56.3,39.4161,12.8571,0.53845
46:56.3,47.0199,17.5,0.62855
46:56.3,39.4904,17.1053,0.57895
46:56.3,41.0256,19.4805,0.5652
46:56.3,41.4013,12.5,0.53335
46:56.3,35.8974,18.1818,0.33335
46:56.3,48.0263,17.6471,0.48275
46:56.3,38.7879,15.1899,0.62905
46:56.3,39.7351,16.6667,0.42105
46:56.3,43.9189,9.2105,0.6111
46:56.3,38.4058,16.6667,0.70215
46:56.3,45.7364,18.8406,0.51065
46:56.3,35.2,28.5714,0.451
46:56.3,44.1176,23.3766,0.4681
46:56.3,27.0677,24.0741,0.5246
46:56.3,48.8889,17.5,0.3896
46:56.3,37.7483,19.7183,0.64285
46:56.3,38.5135,30.9859,0.51515
46:56.3,47.027,22.9358,0.67855
46:56.3,35.3488,19.802,0.5104
46:56.3,34.4086,17.8571,0.5
46:56.3,34.2105,16.4179,0.62105
46:56.3,41.791,26.8657,0.54715
46:56.3,45.8599,14.4444,0.60565
46:56.3,36.9697,20.2703,0.55555
46:56.3,40.5405,16.2162,0.38
46:56.3,31.7829,22.2222,0.5641
46:56.3,54.7945,15.2174,0.54795
46:56.3,35.3659,20.8333,0.5926
46:56.3,30,27.7778,0.2963
46:56.3,40.5172,27.1186,0.5278
46:56.3,35,20.6897,0.4222
46:56.3,39.1304,21.0526,0.53845
46:56.3,40,20.6897,0.4762
46:56.3,42.2764,14.0625,0.41175
46:56.3,39.6694,22.807,0.54545
46:56.3,33.0189,35.4167,0.3846
46:56.3,43.4783,14.9254,0.41665
46:56.3,40.7692,31.746,0.4512
46:56.3,40.7143,20.7792,0.61905
46:56.3,37.1622,22.5352,0.55405
46:56.3,38.1944,25.3521,0.5294
46:56.3,35.1724,24.6377,0.47275
46:56.3,32.3077,22.0339,0.5849
46:56.3,38.7931,14.0351,0.4
46:56.3,34,33.3333,0.42855
46:56.3,44.0367,25,0.6842
46:56.3,34.4262,20.6897,0.59575
46:56.3,36.7521,23.6364,0.45455
46:56.3,47.0149,18.1818,0.5977
46:56.3,33.3333,26.6667,0.67855
46:56.3,36.6667,26.6667,0.58825
46:56.3,41.0853,21.7391,0.7097
46:56.3,29.8507,23.2143,0.61405
46:56.3,40.8,18.4615,0.62905
46:56.3,36.0656,19.6429,0.4386
46:56.3,36.4486,20.4082,0.43135
46:56.3,38.835,23.5294,0.61905
46:56.3,35.2941,23.913,0.60345
46:56.3,47.7064,25.3968,0.43285
46:56.3,44.898,28.0488,0.60215
46:56.3,25,15.5172,0.53705
46:56.3,23.1579,0,0.7027